ids_1,ids_2,ids_3,ids_4,ids_5,ids_6,ids_7
,,,,,,
1,1,1,1,1,1,
1,1,1,1,1,1,
1,1,1,1,1,1,
1,1,1,1,1,1,
1,1,1,1,1,1,
1,1,1,1,1,1,
1,1,1,1,1,1,
1,1,1,1,1,1,
1,1,1,1,1,1,
1,1,1,1,1,1,
1,1,1,1,1,1,
1,1,1,1,1,1,
1,1,1,1,1,1,
1,1,1,1,1,1,
1,1,1,1,1,1,
1,1,1,1,1,1,
1,1,1,1,1,1,
1,1,1,1,1,1,
1,1,1,1,1,1,
1,1,1,1,1,1,
1,1,1,1,1,1,
1,1,1,1,1,1,
1,1,1,1,1,1,
1,1,1,1,1,1,
1,1,1,1,1,1,
1,1,1,1,1,1,
1,1,1,1,1,1,
1,1,1,1,1,1,
1,1,1,1,1,1,
1,1,1,1,1,1,
1,1,1,1,1,1,
1,1,1,1,1,1,
1,1,1,1,1,1,
1,1,1,1,1,1,
1,1,1,1,1,1,
1,1,1,1,1,1,
1,1,1,1,1,1,
1,1,1,1,1,1,
1,1,1,1,1,1,
1,1,1,1,1,1,
1,1,1,1,1,1,
1,1,1,1,1,1,
1,1,1,1,1,1,
1,1,1,1,1,1,
1,1,1,1,1,1,
1,1,1,1,1,1,
1,1,1,1,1,1,
1,1,1,1,1,1,
1,1,1,1,1,1,
1,1,1,1,1,1,
1,1,1,1,1,1,
1,1,1,1,1,1,
1,1,1,1,1,1,
1,1,1,1,1,1,
1,1,1,1,1,1,
1,1,1,1,1,1,
1,1,1,1,1,1,
1,1,1,1,1,1,
1,1,1,1,1,1,
1,1,1,1,1,1,
1,1,1,1,1,1,
1,1,1,1,1,1,
1,1,1,1,1,1,
1,1,1,1,1,1,
1,1,1,1,1,1,
1,1,1,1,1,1,
1,1,1,1,1,1,
1,1,1,1,1,1,
1,1,1,1,1,1,
1,1,1,1,1,1,
1,1,1,1,1,1,
1,1,1,1,1,1,
1,1,1,1,1,1,
1,1,1,1,1,1,
1,1,1,1,1,1,
1,1,1,1,1,1,
1,1,1,1,1,1,
1,1,1,1,1,1,
1,1,1,1,1,1,
1,1,1,1,1,1,
1,1,1,1,1,1,
1,1,1,1,1,1,
1,1,1,1,1,1,
1,1,1,1,1,1,
1,1,1,1,1,1,
1,1,1,1,1,1,
1,1,1,1,1,1,
1,1,1,1,1,1,
1,1,1,1,1,1,
1,1,1,1,1,1,
1,1,1,1,1,1,
1,1,1,1,1,1,
1,1,1,1,1,1,
1,1,1,1,1,1,
1,1,1,1,1,1,
1,1,1,1,1,1,
1,1,1,1,1,1,
1,1,1,1,1,1,
1,1,1,1,1,1,
1,1,1,1,1,1,
1,1,1,1,1,1,
1,1,1,1,1,1,
1,1,1,1,1,1,
1,1,1,1,1,1,
1,1,1,1,1,1,
1,1,1,1,1,1,
1,1,1,1,1,1,
1,1,1,1,1,1,
1,1,1,1,1,1,
1,1,1,1,1,1,
1,1,1,1,1,1,
1,1,1,1,1,1,
1,1,1,1,1,1,
1,1,1,1,1,1,
1,1,1,1,1,1,
1,1,1,1,1,1,
1,1,1,1,1,1,
1,1,1,1,1,1,
1,1,1,1,1,1,
1,1,1,1,1,1,
1,1,1,1,1,1,
1,1,1,1,1,1,
1,1,1,1,1,1,
1,1,1,1,1,1,
1,1,1,1,1,1,
1,1,1,1,1,1,
1,1,1,1,1,1,
1,1,1,1,1,1,
1,1,1,1,1,1,
1,1,1,1,1,1,
1,1,1,1,1,1,
1,1,1,1,1,1,
1,1,1,1,1,1,
1,1,1,1,1,1,
1,1,1,1,1,1,
1,1,1,1,1,1,
1,1,1,1,1,1,
1,1,1,1,1,1,
1,1,1,1,1,1,
1,1,1,1,1,1,
1,1,1,1,1,1,
1,1,1,1,1,1,
1,1,1,1,1,1,
1,1,1,1,1,1,
1,1,1,1,1,1,
1,1,1,1,1,1,
1,1,1,1,1,1,
1,1,1,1,1,1,
1,1,1,1,1,1,
1,1,1,1,1,1,
1,1,1,1,1,1,
1,1,1,1,1,1,
1,1,1,1,1,1,
1,1,1,1,1,1,
1,1,1,1,1,1,
1,1,1,1,1,1,
1,1,1,1,1,1,
1,1,1,1,1,1,
1,1,1,1,1,1,
1,1,1,1,1,1,
1,1,1,1,1,1,
1,1,1,1,1,1,
1,1,1,1,1,1,
1,1,1,1,1,1,
1,1,1,1,1,1,
1,1,1,1,1,1,
1,1,1,1,1,1,
1,1,1,1,1,1,
1,1,1,1,1,1,
1,1,1,1,1,1,
1,1,1,1,1,1,
1,1,1,1,1,1,
1,1,1,1,1,1,
1,1,1,1,1,1,
1,1,1,1,1,1,
1,1,1,1,1,1,
1,1,1,1,1,1,
1,1,1,1,1,1,
1,1,1,1,1,1,
1,1,1,1,1,1,
1,1,1,1,1,1,
1,1,1,1,1,1,
1,1,1,1,1,1,
1,1,1,1,1,1,
1,1,1,1,1,1,
1,1,1,1,1,1,
1,1,1,1,1,1,
1,1,1,1,1,1,
1,1,1,1,1,1,
1,1,1,1,1,1,
1,1,1,1,1,1,
1,1,1,1,1,1,
1,1,1,1,1,1,
1,1,1,1,1,1,
1,1,1,1,1,1,
1,1,1,1,1,1,
1,1,1,1,1,1,
1,1,1,1,1,1,
1,1,1,1,1,1,
0,2,2,2,2,2,
0,2,2,2,2,2,
0,2,2,2,2,2,
0,2,2,2,2,2,
0,2,2,2,2,2,
0,2,2,2,2,2,
0,2,2,2,2,2,
0,2,2,2,2,2,
0,2,2,2,2,2,
0,2,2,2,2,2,
0,2,2,2,2,2,
0,2,2,2,2,2,
0,2,2,2,2,2,
0,2,2,2,2,2,
0,2,2,2,2,2,
0,2,2,2,2,2,
0,2,2,2,2,2,
0,2,2,2,2,2,
0,2,2,2,2,2,
0,2,2,2,2,2,
0,2,2,2,2,2,
0,2,2,2,2,2,
0,2,2,2,2,2,
0,2,2,2,2,2,
0,2,2,2,2,2,
0,2,2,2,2,2,
0,2,2,2,2,2,
0,2,2,2,2,2,
0,2,2,2,2,2,
0,2,2,2,2,2,
0,2,2,2,2,2,
0,2,2,2,2,2,
0,2,2,2,2,2,
0,2,2,2,2,2,
0,2,2,2,2,2,
0,2,2,2,2,2,
0,2,2,2,2,2,
0,2,2,2,2,2,
0,2,2,2,2,2,
0,2,2,2,2,2,
0,2,2,2,2,2,
0,2,2,2,2,2,
0,2,2,2,2,2,
0,2,2,2,2,2,
0,2,2,2,2,2,0
0,2,2,2,2,2,0
0,2,2,2,2,2,0
0,2,2,2,2,2,0
0,2,2,2,2,2,0
0,2,2,2,2,2,0
0,2,2,2,2,2,0
0,2,2,2,2,2,0
0,2,2,2,2,2,0
0,2,2,2,2,2,0
0,2,2,2,2,2,0
0,2,2,2,2,2,0
0,2,2,2,2,2,0
0,2,2,2,2,2,0
0,2,2,2,2,2,0
0,2,2,2,2,2,0
0,2,2,2,2,2,0
0,2,2,2,2,2,0
0,2,2,2,2,2,0
0,2,2,2,2,2,0
0,2,2,2,2,2,0
0,2,2,2,2,2,0
0,2,2,2,2,2,0
0,2,2,2,2,2,0
0,2,2,2,2,2,0
0,2,2,2,2,2,0
0,2,2,2,2,2,0
0,2,2,2,2,2,0
0,2,2,2,2,2,0
0,2,2,2,2,2,0
0,2,2,2,2,2,0
0,2,2,2,2,2,0
0,2,2,2,2,2,0
0,2,2,2,2,2,0
0,2,2,2,2,2,0
0,2,2,2,2,2,0
0,2,2,2,2,2,0
0,2,2,2,2,2,0
0,2,2,2,2,2,0
0,2,2,2,2,2,0
0,2,2,2,2,2,0
0,2,2,2,2,2,0
0,2,2,2,2,2,0
0,2,2,2,2,2,0
0,2,2,2,2,2,0
0,2,2,2,2,2,0
0,2,2,2,2,2,0
0,2,2,2,2,2,0
0,2,2,2,2,2,0
0,2,2,2,2,2,0
0,2,2,2,2,2,0
0,2,2,2,2,2,0
0,2,2,2,2,2,0
0,2,2,2,2,2,0
0,2,2,2,2,2,0
0,2,2,2,2,2,0
0,2,2,2,2,2,0
0,2,2,2,2,2,0
0,2,2,2,2,2,0
0,2,2,2,2,2,0
0,2,2,2,2,2,0
0,2,2,2,2,2,0
0,2,2,2,2,2,0
0,2,2,2,2,2,0
0,2,2,2,2,2,0
0,2,2,2,2,2,0
0,2,2,2,2,2,0
0,2,2,2,2,2,0
0,2,2,2,2,2,0
0,2,2,2,2,2,0
0,2,2,2,2,2,0
0,2,2,2,2,2,0
0,2,2,2,2,2,0
0,2,2,2,2,2,0
0,2,2,2,2,2,0
0,2,2,2,2,2,0
0,2,2,2,2,2,0
0,2,2,2,2,2,0
0,2,2,2,2,2,0
0,2,2,2,2,2,0
0,2,2,2,2,2,0
0,2,2,2,2,2,0
0,2,2,2,2,2,0
0,2,2,2,2,2,0
0,3,3,3,3,3,3
0,3,3,3,3,3,3
0,3,3,3,3,3,3
0,3,3,3,3,3,3
0,3,3,3,3,3,3
0,3,3,3,3,3,3
0,3,3,3,3,3,3
0,3,3,3,3,3,3
0,3,3,3,3,3,3
0,3,3,3,3,3,3
0,3,3,3,3,3,3
0,3,3,3,3,3,3
0,3,3,3,3,3,3
0,3,3,3,3,3,3
0,3,3,3,3,3,3
0,3,3,3,3,3,3
0,3,3,3,3,3,3
0,3,3,3,3,3,3
0,3,3,3,3,3,3
0,3,3,3,3,3,3
0,3,3,3,3,3,3
0,3,3,3,3,3,3
0,3,3,3,3,3,3
0,3,3,3,3,3,3
0,3,3,3,3,3,3
0,3,3,3,3,3,3
0,3,3,3,3,3,3
0,3,3,3,3,3,3
0,3,3,3,3,3,3
0,3,3,3,3,3,3
0,3,3,3,3,3,3
0,3,3,3,3,3,3
0,3,3,3,3,3,3
0,3,3,3,3,3,3
0,3,3,3,3,3,3
0,3,3,3,3,3,3
0,3,3,3,3,3,3
0,3,3,3,3,3,3
0,3,3,3,3,3,3
0,3,3,3,3,3,3
0,3,3,3,3,3,3
0,3,3,3,3,3,3
0,3,3,3,3,3,3
0,3,3,3,3,3,3
0,3,3,3,3,3,3
0,3,3,3,3,3,3
0,3,3,3,3,3,3
0,3,3,3,3,3,3
0,3,3,3,3,3,3
0,3,3,3,3,3,3
0,3,3,3,3,3,3
0,3,3,3,3,3,3
0,3,3,3,3,3,3
0,3,3,3,3,3,3
0,3,3,3,3,3,3
0,3,3,3,3,3,3
0,3,3,3,3,3,3
0,3,3,3,3,3,3
0,3,3,3,3,3,3
0,3,3,3,3,3,3
0,3,3,3,3,3,3
0,3,3,3,3,3,3
0,3,3,3,3,3,3
0,3,3,3,3,3,3
3,3,3,3,3,3,
3,3,3,3,3,3,
3,3,3,3,3,3,
3,3,3,3,3,3,
3,3,3,3,3,3,
3,3,3,3,3,3,
3,3,3,3,3,3,
3,3,3,3,3,3,
3,3,3,3,3,3,
3,3,3,3,3,3,
3,3,3,3,3,3,
3,3,3,3,3,3,
3,3,3,3,3,3,
3,3,3,3,3,3,
3,3,3,3,3,3,
3,3,3,3,3,3,
3,3,3,3,3,3,
3,3,3,3,3,3,
3,3,3,3,3,3,
3,3,3,3,3,3,
3,3,3,3,3,3,
3,3,3,3,3,3,
3,3,3,3,3,3,
3,3,3,3,3,3,
3,3,3,3,3,3,
3,3,3,3,3,3,
3,3,3,3,3,3,
3,3,3,3,3,3,
3,3,3,3,3,3,
3,3,3,3,3,3,
3,3,3,3,3,3,
3,3,3,3,3,3,
3,3,3,3,3,3,
3,3,3,3,3,3,
3,3,3,3,3,3,
3,3,3,3,3,3,
3,3,3,3,3,3,
3,3,3,3,3,3,
3,3,3,3,3,3,
3,3,3,3,3,3,
3,3,3,3,3,3,
3,3,3,3,3,3,
3,3,3,3,3,3,
3,3,3,3,3,3,
3,3,3,3,3,3,
3,3,3,3,3,3,
3,3,3,3,3,3,
3,3,3,3,3,3,
3,3,3,3,3,3,
3,3,3,3,3,3,
3,3,3,3,3,3,
3,3,3,3,3,3,
3,3,3,3,3,3,
3,3,3,3,3,3,
3,3,3,3,3,3,
3,3,3,3,3,3,
3,3,3,3,3,3,
3,3,3,3,3,3,
3,3,3,3,3,3,
3,3,3,3,3,3,
3,3,3,3,3,3,
3,3,3,3,3,3,
3,3,3,3,3,3,
3,3,3,3,3,3,
3,3,3,3,3,3,
3,3,3,3,3,3,
3,3,3,3,3,3,
3,3,3,3,3,3,
3,3,3,3,3,3,
3,3,3,3,3,3,
3,3,3,3,3,3,
3,3,3,3,3,3,
3,3,3,3,3,3,
3,3,3,3,3,3,
3,3,3,3,3,3,
3,3,3,3,3,3,
3,3,3,3,3,3,
3,3,3,3,3,3,
3,3,3,3,3,3,
3,3,3,3,3,3,
3,3,3,3,3,3,
3,3,3,3,3,3,
3,3,3,3,3,3,
3,3,3,3,3,3,
3,3,3,3,3,3,
3,3,3,3,3,3,
3,3,3,3,3,3,
3,3,3,3,3,3,
3,3,3,3,3,3,
3,3,3,3,3,3,
3,3,3,3,3,3,
3,3,3,3,3,3,
3,3,3,3,3,3,
3,3,3,3,3,3,
3,3,3,3,3,3,
3,3,3,3,3,3,
3,3,3,3,3,3,
3,3,3,3,3,3,
3,3,3,3,3,3,
3,3,3,3,3,3,
3,3,3,3,3,3,
3,3,3,3,3,3,
3,3,3,3,3,3,
3,3,3,3,3,3,
3,3,3,3,3,3,
3,3,3,3,3,3,
3,3,3,3,3,3,
3,3,3,3,3,3,
3,3,3,3,3,3,
3,3,3,3,3,3,
3,3,3,3,3,3,
3,3,3,3,3,3,
3,3,3,3,3,3,
3,3,3,3,3,3,
3,3,3,3,3,3,
3,3,3,3,3,3,
3,3,3,3,3,3,
3,3,3,3,3,3,
3,3,3,3,3,3,
3,3,3,3,3,3,
,,,,,,
,,,,,,
,,,,,,
,,,,,,
,,,,,,
,,,,,,
,,,,,,
,,,,,,
,,,,,,
,,,,,,
,,,,,,
,,,,,,
,,,,,,
,,,,,,
,,,,,,
,,,,,,
,,,,,,
,,,,,,
,,,,,,
,,,,,,
,,,,,,
,,,,,,
,,,,,,
,,,,,,
,,,,,,
,,,,,,
,,,,,,
,,,,,,
