1,1,514.05,443.14,0,0
1,2,561.5,415.32,0,0
1,3,604.05,457.86,0,0
1,4,553.32,477.5,0,0
31,1,518.95,448.05,4.9042,4.9042
31,2,564.77,418.59,3.2695,3.2695
31,3,600.77,456.23,-3.2695,-1.6347
31,4,558.23,477.5,4.9042,0
61,1,518.95,438.23,0,-9.8084
61,2,563.14,420.23,-1.6347,1.6347
61,3,599.14,456.23,-1.6347,0
61,4,551.68,477.5,-6.5389,0
91,1,518.95,444.77,0,6.5389
91,2,566.41,420.23,3.2695,0
91,3,599.14,454.59,0,-1.6347
91,4,553.32,474.23,1.6347,-3.2695
121,1,514.05,443.14,-4.9042,-1.6347
121,2,564.77,416.95,-1.6347,-3.2695
121,3,600.77,451.32,1.6347,-3.2695
121,4,553.32,474.23,0,0
151,1,515.68,433.32,1.6347,-9.8084
151,2,564.77,416.95,0,0
151,3,597.5,454.59,-3.2695,3.2695
151,4,554.95,475.86,1.6347,1.6347
181,1,515.68,441.5,0,8.1736
181,2,566.41,421.86,1.6347,4.9042
181,3,597.5,454.59,0,0
181,4,556.59,477.5,1.6347,1.6347
211,1,515.68,443.14,0,1.6347
211,2,572.95,420.23,6.5389,-1.6347
211,3,604.05,456.23,6.5389,1.6347
211,4,553.32,477.5,-3.2695,0
241,1,515.68,443.14,0,0
241,2,568.05,410.41,-4.9042,-9.8084
241,3,597.5,452.95,-6.5389,-3.2695
241,4,551.68,474.23,-1.6347,-3.2695
271,1,497.68,438.23,-17.982,-4.9042
271,2,572.95,403.86,4.9042,-6.5389
271,3,599.14,449.68,1.6347,-3.2695
271,4,528.77,472.59,-22.886,-1.6347
301,1,432.23,403.86,-65.389,-34.329
301,2,608.95,379.32,35.964,-24.521
301,3,592.59,443.14,-6.5389,-6.5389
301,4,469.86,439.86,-58.85,-32.695
331,1,358.59,369.5,-73.563,-34.329
331,2,638.41,333.5,29.425,-45.772
331,3,584.41,379.32,-8.1736,-63.754
331,4,371.68,413.68,-98.084,-26.156
361,1,268.59,349.86,-89.91,-19.617
361,2,664.59,297.5,26.156,-35.964
361,3,604.05,297.5,19.617,-81.736
361,4,276.77,395.68,-94.814,-17.982
391,1,176.95,340.05,-91.545,-9.8084
391,2,715.32,259.86,50.677,-37.599
391,3,630.23,235.32,26.156,-62.12
391,4,183.5,385.86,-93.18,-9.8084
421,1,72.227,356.41,-104.62,16.347
421,2,762.77,196.05,47.407,-63.754
421,3,682.59,164.95,52.311,-70.293
421,4,78.773,423.5,-104.62,37.599
451,2,829.86,130.59,67.024,-65.389
451,3,739.86,115.86,57.216,-49.042
481,2,883.86,79.864,53.946,-50.677
