31,1,64.045,376.05,0,0
31,2,90.227,413.68,0,0
61,1,160.59,340.05,96.449,-35.964
61,2,178.59,374.41,88.275,-39.233
91,1,244.05,295.86,83.371,-44.138
91,2,268.59,340.05,89.91,-34.329
91,3,898.59,112.59,0,0
121,1,338.95,266.41,94.814,-29.425
121,2,353.68,308.95,85.006,-31.06
121,3,816.77,148.59,-81.736,35.964
121,4,826.59,122.41,0,0
151,1,425.68,238.59,86.641,-27.79
151,2,440.41,274.59,86.641,-34.329
151,3,746.41,184.59,-70.293,35.964
151,4,756.23,148.59,-70.293,26.156
181,1,509.14,197.68,83.371,-40.868
181,2,520.59,240.23,80.102,-34.329
181,3,669.5,235.32,-76.832,50.677
181,4,689.14,196.05,-67.024,47.407
211,1,587.68,156.77,78.467,-40.868
211,2,602.41,199.32,81.736,-40.868
211,3,587.68,269.68,-81.736,34.329
211,4,613.86,240.23,-75.198,44.138
241,1,674.41,127.32,86.641,-29.425
241,2,684.23,161.68,81.736,-37.599
241,3,499.32,290.95,-88.275,21.251
241,4,515.68,258.23,-98.084,17.982
271,1,748.05,88.045,73.563,-39.233
271,2,759.5,125.68,75.198,-35.964
271,3,406.05,318.77,-93.18,27.79
271,4,414.23,284.41,-101.35,26.156
301,2,846.23,83.136,86.641,-42.503
301,3,299.68,359.68,-106.26,40.868
301,4,309.5,318.77,-104.62,34.329
331,3,196.59,395.68,-102.99,35.964
331,4,196.59,354.77,-112.8,35.964
361,3,96.773,443.14,-99.718,47.407
361,4,95.136,395.68,-101.35,40.868
